Compare the GDP Components in the US, Germany and India · Zimeng Zhou's Website
…
# Display the % difference between what calculated as GDP and the GDP figure included in the dataframe
gdp_diff<-graph2_data1 %>% 
 pivot_longer(cols = -c(1:3),
              names_to = "ShortName", 
              values_to = "GDP_Difference"
               )%>% 
  filter(ShortName =="GDP_difference")

gdp_diff<-gdp_diff %>% 
  mutate(GDP_difference_percent=scales::percent(GDP_Difference))
print(subset(gdp_diff,select=-c(GDP_Difference)))

## # A tibble: 144 x 5
##    CountryID Country Year  ShortName      GDP_difference_percent
##        <dbl> <chr>   <chr> <chr>          <chr>                 
##  1       276 Germany 1970  GDP_difference 3.0302737%            
##  2       276 Germany 1971  GDP_difference 3.5396552%            
##  3       276 Germany 1972  GDP_difference 3.5566903%            
##  4       276 Germany 1973  GDP_difference 2.9213477%            
##  5       276 Germany 1974  GDP_difference 1.7805618%            
##  6       276 Germany 1975  GDP_difference 2.9271732%            
##  7       276 Germany 1976  GDP_difference 2.8330886%            
##  8       276 Germany 1977  GDP_difference 2.7650744%            
##  9       276 Germany 1978  GDP_difference 3.0486893%            
## 10       276 Germany 1979  GDP_difference 3.4416053%            
## # ... with 134 more rows
…
